[
    {
        "userName": "Vu Quang Huy",
        "userId": "20173170",
        "idCard": "1001",
        "accountBalance": "1000000"
    },
    {
        "userName": "Trinh Thi Hong",
        "userId": "20173147",
        "idCard": "1002",
        "accountBalance": "1"
    },
    {
        "userName": "Le Xuan Quang",
        "userId": "20173330",
        "idCard": "1003",
        "accountBalance": "1050000"
    },
    {
        "userName": "Pham Ba Son",
        "userId": "20173338",
        "idCard": "1004",
        "accountBalance": "5000"
    },
    {
        "userName": "Nguyen Truong Giang",
        "userId": "20173083",
        "idCard": "1005",
        "accountBalance": "10000000"
    },
    {
        "userName": "Tran Thi Minh Thu",
        "userId": "20173392",
        "idCard": "1006",
        "accountBalance": "6000000"
    } 
]