<?xml version="1.0" encoding="UTF-8"?>
<session version="1.0">
<refactoring comment="Rename resource &apos;Eco_Bike_Server/src/com/ebr/db/seed/station.json&apos; to &apos;stations.json&apos;" description="Rename resource &apos;station.json&apos;" flags="7" id="org.eclipse.ltk.core.refactoring.rename.resource" input="src/com/ebr/db/seed/station.json" name="stations.json" stamp="1608387251692" updateReferences="true"/>
</session>