INDEX VERSION 1.131+C:\Users\dong.pt173020\Desktop\Eco_Bike\Projects\.metadata\.plugins\org.eclipse.jdt.core
3358653867.index
4113292253.index
1736156988.index
888616574.index
2106814004.index
2604752152.index
224849822.index
1648167516.index
3828500698.index
1751253501.index
362866128.index
4031080314.index
2992919159.index
2674763733.index
2998689756.index
2136049817.index
2175374352.index
440383117.index
1706639761.index
1253582188.index
823731172.index
1658864322.index
1324229890.index
817703450.index
2422916437.index
3250391230.index
2560385628.index
4067041802.index
4198590909.index
1215759162.index
3465020443.index
3355907946.index
1207799048.index
1185945804.index
3339608285.index
3851943272.index
4240698463.index
3431917794.index
83558746.index
1563050150.index
1763525168.index
2545141987.index
220127302.index
2888888903.index
540667410.index
189116262.index
2448636851.index
1456560745.index
3089753859.index
2339079590.index
3070078892.index
1835823486.index
2903364770.index
4230236129.index
1621397337.index
1406292781.index
2237592393.index
4252829955.index
1640965689.index
2008062694.index
2463586938.index
2685835368.index
3002643981.index
811490425.index
975890702.index
